{
  "_id": "nXC3q6FN5AXGOJOs",
  "name": "Dinosaur Racing (balthazar)",
  "sort": 1100000,
  "flags": {
    "exportSource": {
      "world": "tombsofannihilation",
      "system": "dnd5e",
      "coreVersion": "0.7.9",
      "systemVersion": "1.2.4"
    }
  },
  "content": "<p><a href=\"https://blog.balthazar-rouberol.com/running-the-port-nyanzaru-dinosaur-race\">Running the Port Nyanzaru Dinosaur Race</a></p>\n<p>&nbsp;</p>\n<p>Each player had to pay 20 gold to enter the race. The first finisher gets 100 gold, the second one gets 50 gold and the third one gets 20 gold. The players are obviously free to bet on anything they like, and the DM is responsible for giving them appropriate odds.</p>\n<p>&nbsp;</p>\n<p>The players roll initiative to determine the order in which they'll play. We however consider that they all move at the same time, meaning that if 2 dinosaurs cross the finish line during the same round, they'll be considered ex aequo.</p>\n<p>A player's turn goes as follows:</p>\n<ol>\n<li>the jockey rolls an animal handling check against the dinosaur's DC to see if they can control it\n<ul>\n<li>if successful, the dinosaur moves using its high speed dice</li>\n<li>if unsuccessful, the dinosaur moves its low speed dice. The jockey could however choose to hit its mount with its whip to coerce it into running faster (using its high speed dice).\n<ul>\n<li>The dinosaur needs to make a successful DC10 CON&nbsp;check for that.</li>\n<li>If unsuccessful, it moves at half speed for the rest of the turn.</li>\n<li>For the more aggressive dinosaurs (the ones marked with an asterisk), if the CON check failed by more than 5 points, it stops moving for 2 rounds, in protest.</li>\n</ul>\n</li>\n</ul>\n</li>\n<li>If a dinosaur moves through or stops on a red square (on a bridge), it could attempt to trip another dinosaur located on the same square.\n<ul>\n<li>If the other dinosaur fails a DC 10 DEX check, it's considered prone for a turn.</li>\n</ul>\n</li>\n<li>If a dinosaur stops (or&nbsp;chooses&nbsp;to stop) on a blue square, the jockey can decide to pick up some loot box. These boxes can have positive or negative effects, either instantaneous or to possibly be used later, anytime during the player's turn (think Mario Kart loot boxes).</li>\n</ol>\n<p>I've kept the same dinosaur stats as given in the book, and used the official&nbsp;<a href=\"https://5e.tools/bestiary.html#velociraptor_vgm\">stats block</a>&nbsp;for the Velociraptor.</p>\n<p>&nbsp;</p>\n<table style=\"width: 99.1477%; height: 178px;\">\n<thead>\n<tr style=\"height: 33px;\">\n<th style=\"width: 5.20232%; height: 33px;\">Jockey</th>\n<th style=\"width: 20.3883%; height: 33px;\">Dinosaur</th>\n<th style=\"width: 9.59196%; height: 33px;\">\n<p>Jockey</p>\n<p><abbr title=\"Wisdom\">WIS</abbr></p>\n</th>\n<th style=\"width: 9.62958%; height: 33px;\">\n<p>Low</p>\n<p>speed</p>\n<p>dice</p>\n</th>\n<th style=\"width: 17.1722%; height: 33px;\">\n<p>High</p>\n<p>speed</p>\n<p>dice</p>\n</th>\n<th style=\"width: 10.6095%; height: 33px;\">\n<p>Animal</p>\n<p>Handling</p>\n<p>DC</p>\n</th>\n<th style=\"width: 8.32146%; height: 33px;\"><abbr title=\"Constitution\">CON</abbr></th>\n<th style=\"width: 19.0845%; height: 33px;\"><abbr title=\"Dexterity\">DEX</abbr></th>\n</tr>\n</thead>\n<tbody>\n<tr style=\"height: 16px;\">\n<td style=\"width: 5.20232%; height: 16px;\">@Actor[LSjoJ7uVXHNxgjOT]{Atuar}</td>\n<td style=\"width: 20.3883%; height: 16px;\">Triceratops</td>\n<td style=\"width: 9.59196%; height: 16px;\">14(+2)</td>\n<td style=\"width: 9.62958%; height: 16px;\">1d6</td>\n<td style=\"width: 17.1722%; height: 16px;\">1d4+6</td>\n<td style=\"width: 10.6095%; height: 16px;\">14</td>\n<td style=\"width: 8.32146%; height: 16px;\">15(+2)</td>\n<td style=\"width: 19.0845%; height: 16px;\">9(-1)</td>\n</tr>\n<tr style=\"height: 16px;\">\n<td style=\"width: 5.20232%; height: 16px;\">@Actor[wNnvSue71AoOhPF0]{Azuil}</td>\n<td style=\"width: 20.3883%; height: 16px;\">Hadrosaurus</td>\n<td style=\"width: 9.59196%; height: 16px;\">12(+1)</td>\n<td style=\"width: 9.62958%; height: 16px;\">1d6</td>\n<td style=\"width: 17.1722%; height: 16px;\">1d2+6</td>\n<td style=\"width: 10.6095%; height: 16px;\">10</td>\n<td style=\"width: 8.32146%; height: 16px;\">13(+1)</td>\n<td style=\"width: 19.0845%; height: 16px;\">10(0)</td>\n</tr>\n<tr style=\"height: 33px;\">\n<td style=\"width: 5.20232%; height: 33px;\">@Actor[6TSQ7u64y0Zys7HQ]{Chuil}</td>\n<td style=\"width: 20.3883%; height: 33px;\">Tyrannosaurus</td>\n<td style=\"width: 9.59196%; height: 33px;\">17(+3)</td>\n<td style=\"width: 9.62958%; height: 33px;\">1d6</td>\n<td style=\"width: 17.1722%; height: 33px;\">1d6+6</td>\n<td style=\"width: 10.6095%; height: 33px;\">18*</td>\n<td style=\"width: 8.32146%; height: 33px;\">17(+3)</td>\n<td style=\"width: 19.0845%; height: 33px;\">10(0)</td>\n</tr>\n<tr style=\"height: 16px;\">\n<td style=\"width: 5.20232%; height: 16px;\">@Actor[KLODUEw3G30KZoEz]{Gavori}</td>\n<td style=\"width: 20.3883%; height: 16px;\">Dimetrodon</td>\n<td style=\"width: 9.59196%; height: 16px;\">13(+1)</td>\n<td style=\"width: 9.62958%; height: 16px;\">1d4</td>\n<td style=\"width: 17.1722%; height: 16px;\">1d4+4</td>\n<td style=\"width: 10.6095%; height: 16px;\">8</td>\n<td style=\"width: 8.32146%; height: 16px;\">15(+2)</td>\n<td style=\"width: 19.0845%; height: 16px;\">12(+1)</td>\n</tr>\n<tr style=\"height: 16px;\">\n<td style=\"width: 5.20232%; height: 16px;\">@Actor[ZOl3w9sZST5rTaMH]{Fipya}</td>\n<td style=\"width: 20.3883%; height: 16px;\">Allosaurus</td>\n<td style=\"width: 9.59196%; height: 16px;\">16(+3)</td>\n<td style=\"width: 9.62958%; height: 16px;\">1d6</td>\n<td style=\"width: 17.1722%; height: 16px;\">1d4+6</td>\n<td style=\"width: 10.6095%; height: 16px;\">16*</td>\n<td style=\"width: 8.32146%; height: 16px;\">15(+2)</td>\n<td style=\"width: 19.0845%; height: 16px;\">13(+1)</td>\n</tr>\n<tr style=\"height: 16px;\">\n<td style=\"width: 5.20232%; height: 16px;\">@Actor[6czYMhRHqUlBw59G]{Sana}</td>\n<td style=\"width: 20.3883%; height: 16px;\">Deinonychus</td>\n<td style=\"width: 9.59196%; height: 16px;\">17(+3)</td>\n<td style=\"width: 9.62958%; height: 16px;\">1d6</td>\n<td style=\"width: 17.1722%; height: 16px;\">1d2+6</td>\n<td style=\"width: 10.6095%; height: 16px;\">12*</td>\n<td style=\"width: 8.32146%; height: 16px;\">14(+2)</td>\n<td style=\"width: 19.0845%; height: 16px;\">15(+2)</td>\n</tr>\n<tr style=\"height: 16px;\">\n<td style=\"width: 5.20232%; height: 16px;\">@Actor[XZ0plro9i1KrXXYd]{Kwalu}</td>\n<td style=\"width: 20.3883%; height: 16px;\">Ankylosaurus</td>\n<td style=\"width: 9.59196%; height: 16px;\">14(+2)</td>\n<td style=\"width: 9.62958%; height: 16px;\">1d4</td>\n<td style=\"width: 17.1722%; height: 16px;\">1d6+4</td>\n<td style=\"width: 10.6095%; height: 16px;\">13</td>\n<td style=\"width: 8.32146%; height: 16px;\">16(+2)</td>\n<td style=\"width: 19.0845%; height: 16px;\">11(+0)</td>\n</tr>\n<tr style=\"height: 16px;\">\n<td style=\"width: 5.20232%; height: 16px;\">@Actor[0y8JEq4PxEe4Bu9s]{Tiryk}</td>\n<td style=\"width: 20.3883%; height: 16px;\">Velociraptor</td>\n<td style=\"width: 9.59196%; height: 16px;\">15(+2)</td>\n<td style=\"width: 9.62958%; height: 16px;\">1d8</td>\n<td style=\"width: 17.1722%; height: 16px;\">1d2+8</td>\n<td style=\"width: 10.6095%; height: 16px;\">12</td>\n<td style=\"width: 8.32146%; height: 16px;\">13(+1)</td>\n<td style=\"width: 19.0845%; height: 16px;\">14(+2)</td>\n</tr>\n</tbody>\n</table>\n<p>&nbsp;</p>\n<p>Macros for setup</p>\n<p>@Macro[mHJ1l1XtrBLOk7Oq]{Dino Racer Defaults}</p>\n<p>@Macro[BxKLO8n8CKuRfXqt]{Choose Dino Stats}</p>\n<p>@Macro[BIhUUBMxOSTDjNxx]{Set Dino Stats}</p>\n<p>&nbsp;</p>\n<p>Macros for racing</p>\n<p>@Macro[KEgRRJvoTmYxPAzx]{Dino Race}</p>\n<p>@Macro[djLtd3zlSmpoBt0U]{Lash Dino!}</p>\n<p>@Macro[RaYratreG4hXl5dP]{reset stopPrompting flag}</p>\n<p>@Macro[6qwBPkJ2qJpSd4VP]{Roll Loot Box}</p>\n<p>&nbsp;</p>\n<p>Loot box roll table</p>\n<p>@RollTable[gOkuu15tuwJat6dO]{Dino Race Loot Box}</p>\n<p>&nbsp;</p>\n<p>&nbsp;</p>"
}
